{
  "root": {
    "method": "get",
    "pattern": "/",
    "controller": "kepha",
    "action": "index"
  },
  "index": {
    "method": "get",
    "pattern": "/index.html",
    "controller": "kepha",
    "action": "index"
  },
  "styles": {
    "method": "get",
    "pattern": "/styles.html",
    "controller": "kepha",
    "action": "styles"
  }
}
